{
    "pubkey":"g1.le-sou.org",
    "uid":"cesium.g1.1000i100.fr",
    "wallet":"g1.le-sou.org",
    "pay":"g1.le-sou.org",
    "tip":"cesium.g1.1000i100.fr",
    "isMember":"localhost:3000",
    "isSentry":"localhost:3000",
    "isRefer":"localhost:3000"
}